Feture Engineering in R - 1 Introducing Feature Engineering
…
• step_holiday()
• step_dummy()

── Model ───────────────────────────────────────────────────────────────────────
Logistic Regression Model Specification (classification)

Computational engine: glm 

# Fit lr_workflow workflow to the test data  
lr_fit <- lr_workflow %>% fit(data = test)

# Tidy the fitted workflow  
tidy(lr_fit)

# A tibble: 138 × 5
   term                           estimate   std.error statistic   p.value
   <chr>                             <dbl>       <dbl>     <dbl>     <dbl>
 1 (Intercept)                  -34.5      3956.        -0.00873 9.93e-  1
 2 sched_dep_time                -0.000572    0.000162  -3.53    4.10e-  4
 3 dep_delay                     -0.0365      0.00165  -22.1     4.69e-108
 4 sched_arr_time                 0.000502    0.000149   3.37    7.52e-  4
 5 distance                       0.0307      0.0142     2.16    3.07e-  2
 6 date                          -0.000262    0.000503  -0.520   6.03e-  1
 7 date_USChristmasDay            0.935       1.24       0.752   4.52e-  1
 8 date_USColumbusDay            15.2       959.         0.0159  9.87e-  1
 9 date_USCPulaskisBirthday      15.9      1687.         0.00941 9.92e-  1
10 date_USDecorationMemorialDay   0.612       1.12       0.549   5.83e-  1
# ℹ 128 more rows
…
