Feture Engineering in R - 2 Transforming Features
…
Fit the workflow to the train data.

Augment the lr_fit object using the test data to get it ready for assessment.

# Fit the workflow to the train data
lr_fit <- 
  fit(lr_workflow, data = train)

# Augment the lr_fit object
lr_aug <-
  augment(lr_fit, new_data = test)

lr_aug

# A tibble: 369 × 20
   .pred_class .pred_No .pred_Yes Attrition   Age DailyRate DistanceFromHome
 * <fct>          <dbl>     <dbl> <fct>     <int>     <int>            <int>
 1 No             0.795    0.205  No           33      1392                3
 2 No             0.665    0.335  No           27       591                2
 3 No             0.844    0.156  No           29       153               15
 4 No             0.546    0.454  No           31       670               26
 5 No             0.940    0.0596 No           32       334                5
 6 No             0.787    0.213  No           22      1123               16
 7 No             0.876    0.124  No           24       673               11
 8 No             0.950    0.0502 No           34       419                7
 9 No             0.675    0.325  Yes          32      1125               16
10 No             0.963    0.0368 No           44       477                7
# ℹ 359 more rows
# ℹ 13 more variables: HourlyRate <int>, JobLevel <int>, MonthlyIncome <int>,
#   MonthlyRate <int>, NumCompaniesWorked <int>, PercentSalaryHike <int>,
#   StockOptionLevel <int>, TotalWorkingYears <int>,
#   TrainingTimesLastYear <int>, YearsAtCompany <int>,
#   YearsInCurrentRole <int>, YearsSinceLastPromotion <int>,
#   YearsWithCurrManager <int>
…
